lab3/simulation/modelsim/dump.vcd
$date
	Tue Oct 17 17:31:51 2023
$end
$version
	ModelSim Version 10.5b
$end
$timescale
	1ps
$end

$scope module lab3_test $end
$var reg 1 ! CLK $end
$var reg 1 " RESET $end
$var reg 1 # NEXT $end
$var reg 1 $ PLAYER_A $end
$var reg 1 % PLAYER_B $end
$var reg 1 & TEST_LOAD $end
$var wire 1 ' SIGNAL $end
$var wire 1 ( SCORE_A [3] $end
$var wire 1 ) SCORE_A [2] $end
$var wire 1 * SCORE_A [1] $end
$var wire 1 + SCORE_A [0] $end
$var wire 1 , SCORE_B [3] $end
$var wire 1 - SCORE_B [2] $end
$var wire 1 . SCORE_B [1] $end
$var wire 1 / SCORE_B [0] $end
$var wire 1 0 WINNER [3] $end
$var wire 1 1 WINNER [2] $end
$var wire 1 2 WINNER [1] $end
$var wire 1 3 WINNER [0] $end
$var wire 1 4 STATE [3] $end
$var wire 1 5 STATE [2] $end
$var wire 1 6 STATE [1] $end
$var wire 1 7 STATE [0] $end
$var wire 1 8 FALSE_START $end
$var wire 1 9 ADDRESS [2] $end
$var wire 1 : ADDRESS [1] $end
$var wire 1 ; ADDRESS [0] $end
$var wire 1 < DATA [9] $end
$var wire 1 = DATA [8] $end
$var wire 1 > DATA [7] $end
$var wire 1 ? DATA [6] $end
$var wire 1 @ DATA [5] $end
$var wire 1 A DATA [4] $end
$var wire 1 B DATA [3] $end
$var wire 1 C DATA [2] $end
$var wire 1 D DATA [1] $end
$var wire 1 E DATA [0] $end
$var integer 32 F numTestsFailed $end
$var integer 32 G currentLoopFailed $end
$var integer 32 H i $end
$var integer 32 I previousState $end
$var integer 32 J timer $end

$scope module UUT $end
$var parameter 4 K init $end
$var parameter 4 L start $end
$var parameter 4 M led $end
$var parameter 4 N countdown $end
$var parameter 4 O a_false $end
$var parameter 4 P b_false $end
$var parameter 4 Q ready $end
$var parameter 4 R a_won $end
$var parameter 4 S b_won $end
$var parameter 4 T false_win $end
$var parameter 4 U a_false_win $end
$var parameter 4 V b_false_win $end
$var parameter 4 W normal_win $end
$var parameter 4 X a_normal_win $end
$var parameter 4 Y b_normal_win $end
$var wire 1 Z CLK $end
$var wire 1 [ RESET $end
$var wire 1 \ NEXT $end
$var wire 1 ] PLAYER_A $end
$var wire 1 ^ PLAYER_B $end
$var wire 1 _ TEST_LOAD $end
$var wire 1 ' SIGNAL $end
$var wire 1 ( SCORE_A [3] $end
$var wire 1 ) SCORE_A [2] $end
$var wire 1 * SCORE_A [1] $end
$var wire 1 + SCORE_A [0] $end
$var wire 1 , SCORE_B [3] $end
$var wire 1 - SCORE_B [2] $end
$var wire 1 . SCORE_B [1] $end
$var wire 1 / SCORE_B [0] $end
$var reg 4 ` WINNER [3:0] $end
$var reg 4 a STATE [3:0] $end
$var reg 1 b FALSE_START $end
$var wire 1 9 ADDRESS [2] $end
$var wire 1 : ADDRESS [1] $end
$var wire 1 ; ADDRESS [0] $end
$var wire 1 < DATA [9] $end
$var wire 1 = DATA [8] $end
$var wire 1 > DATA [7] $end
$var wire 1 ? DATA [6] $end
$var wire 1 @ DATA [5] $end
$var wire 1 A DATA [4] $end
$var wire 1 B DATA [3] $end
$var wire 1 C DATA [2] $end
$var wire 1 D DATA [1] $end
$var wire 1 E DATA [0] $end
$var wire 1 c LOAD $end
$var wire 1 d DONE $end
$var wire 1 e ENABLE_A $end
$var wire 1 f ENABLE_B $end
$var reg 4 g SCURR [3:0] $end
$var reg 4 h SNEXT [3:0] $end

$scope module a $end
$var wire 1 [ RESET $end
$var wire 1 Z CLK $end
$var reg 3 i ADDRESS [2:0] $end
$upscope $end

$scope module p $end
$var wire 1 9 ADDRESS [2] $end
$var wire 1 : ADDRESS [1] $end
$var wire 1 ; ADDRESS [0] $end
$var reg 10 j DATA [9:0] $end
$upscope $end

$scope module c $end
$var wire 1 Z CLK $end
$var wire 1 c LOAD $end
$var wire 1 k DATA [9] $end
$var wire 1 l DATA [8] $end
$var wire 1 m DATA [7] $end
$var wire 1 n DATA [6] $end
$var wire 1 o DATA [5] $end
$var wire 1 p DATA [4] $end
$var wire 1 q DATA [3] $end
$var wire 1 r DATA [2] $end
$var wire 1 s DATA [1] $end
$var wire 1 t DATA [0] $end
$var wire 1 [ RESET $end
$var reg 1 u DONE $end
$var reg 10 v timer [9:0] $end
$upscope $end

$scope module a_count_score $end
$var wire 1 Z CLK $end
$var wire 1 [ RESET $end
$var wire 1 e ENABLE $end
$var reg 4 w COUNT [3:0] $end
$upscope $end

$scope module b_count_score $end
$var wire 1 Z CLK $end
$var wire 1 [ RESET $end
$var wire 1 f ENABLE $end
$var reg 4 x COUNT [3:0] $end
$upscope $end
$upscope $end
$upscope $end
$enddefinitions $end
#0
$dumpvars
0!
0"
1#
1$
1%
x&
bx `
bx a
xb
bx i
bx j
xu
bx v
bx g
bx h
bx w
bx x
b0 K
b1 L
b10 M
b11 N
b100 O
b101 P
b110 Q
b111 R
b1000 S
b1001 T
b1010 U
b1011 V
b1100 W
b1101 X
b1110 Y
bx F
bx G
bx H
bx I
bx J
x'
x+
x*
x)
x(
x/
x.
x-
x,
x3
x2
x1
x0
x7
x6
x5
x4
x8
x;
x:
x9
xE
xD
xC
xB
xA
x@
x?
x>
x=
x<
xc
xd
xe
xf
x_
1^
1]
1\
0[
0Z
xt
xs
xr
xq
xp
xo
xn
xm
xl
xk
$end
#25000
b0 F
1"
1[
#50000
1!
1Z
b0 w
b0 x
0/
0.
0-
0,
0+
0*
0)
0(
b0 i
b0 v
1u
b0 g
0f
0e
1c
0'
0;
0:
09
1d
b0 `
b0 a
0b
b0 h
07
06
05
04
03
02
01
00
08
b11001000 j
0E
0D
0C
1B
0A
0@
1?
1>
0=
0<
0t
0s
0r
1q
0p
0o
1n
1m
0l
0k
#100000
0!
0Z
#125000
0#
0"
0[
0\
b1 h
#150000
1!
1Z
b1 i
b11001000 v
0u
b1 g
0c
1;
0d
b1 a
17
b1010111100 j
1C
1A
1@
0?
1<
1r
1p
1o
0n
1k
#200000
0!
0Z
#225000
1#
b1 I
1\
#250000
1!
1Z
b10 i
b11000111 v
0;
1:
b101011110 j
1D
0@
1?
0>
1=
0<
1s
0o
1n
0m
1l
0k
#300000
0!
0Z
#325000
b0 G
b0 H
#350000
1!
1Z
b11 i
b11000110 v
1;
b111110100 j
0D
0B
1@
1>
0s
0q
1o
1m
#400000
0!
0Z
#425000
b1 H
#450000
1!
1Z
b100 i
b11000101 v
0;
0:
19
b1010001010 j
1D
0C
1B
0A
0@
0?
0=
1<
1s
0r
1q
0p
0o
0n
0l
1k
#500000
0!
0Z
#525000
b10 H
#550000
1!
1Z
b101 i
b11000100 v
1;
b100101100 j
0D
1C
1@
0>
1=
0<
0s
1r
1o
0m
1l
0k
#600000
0!
0Z
#625000
b11 H
#650000
1!
1Z
b110 i
b11000011 v
0;
1:
b10010110 j
1D
0B
1A
0@
1>
0=
1s
0q
1p
0o
1m
0l
#700000
0!
0Z
#725000
b100 H
#750000
1!
1Z
b111 i
b11000010 v
1;
b1000100110 j
0A
1@
0>
1<
0p
1o
0m
1k
#800000
0!
0Z
#825000
b101 H
#850000
1!
1Z
b0 i
b11000001 v
0;
0:
09
b11001000 j
0D
0C
1B
0@
1?
1>
0<
0s
0r
1q
0o
1n
1m
0k
#900000
0!
0Z
#925000
b110 H
#950000
1!
1Z
b1 i
b11000000 v
1;
b1010111100 j
1C
1A
1@
0?
1<
1r
1p
1o
0n
1k
#1000000
0!
0Z
#1025000
b111 H
#1050000
1!
1Z
b10 i
b10111111 v
0;
1:
b101011110 j
1D
0@
1?
0>
1=
0<
1s
0o
1n
0m
1l
0k
#1100000
0!
0Z
#1125000
b1000 H
#1150000
1!
1Z
b11 i
b10111110 v
1;
b111110100 j
0D
0B
1@
1>
0s
0q
1o
1m
#1200000
0!
0Z
#1225000
b1001 H
#1250000
1!
1Z
b100 i
b10111101 v
0;
0:
19
b1010001010 j
1D
0C
1B
0A
0@
0?
0=
1<
1s
0r
1q
0p
0o
0n
0l
1k
#1300000
0!
0Z
#1325000
b1010 H
#1350000
1!
1Z
b101 i
b10111100 v
1;
b100101100 j
0D
1C
1@
0>
1=
0<
0s
1r
1o
0m
1l
0k
#1400000
0!
0Z
#1425000
b1011 H
#1450000
1!
1Z
b110 i
b10111011 v
0;
1:
b10010110 j
1D
0B
1A
0@
1>
0=
1s
0q
1p
0o
1m
0l
#1500000
0!
0Z
#1525000
b1100 H
#1550000
1!
1Z
b111 i
b10111010 v
1;
b1000100110 j
0A
1@
0>
1<
0p
1o
0m
1k
#1600000
0!
0Z
#1625000
b1101 H
#1650000
1!
1Z
b0 i
b10111001 v
0;
0:
09
b11001000 j
0D
0C
1B
0@
1?
1>
0<
0s
0r
1q
0o
1n
1m
0k
#1700000
0!
0Z
#1725000
b1110 H
#1750000
1!
1Z
b1 i
b10111000 v
1;
b1010111100 j
1C
1A
1@
0?
1<
1r
1p
1o
0n
1k
#1800000
0!
0Z
#1825000
b1111 H
#1850000
1!
1Z
b10 i
b10110111 v
0;
1:
b101011110 j
1D
0@
1?
0>
1=
0<
1s
0o
1n
0m
1l
0k
#1900000
0!
0Z
#1925000
b10000 H
#1950000
1!
1Z
b11 i
b10110110 v
1;
b111110100 j
0D
0B
1@
1>
0s
0q
1o
1m
#2000000
0!
0Z
#2025000
b10001 H
#2050000
1!
1Z
b100 i
b10110101 v
0;
0:
19
b1010001010 j
1D
0C
1B
0A
0@
0?
0=
1<
1s
0r
1q
0p
0o
0n
0l
1k
#2100000
0!
0Z
#2125000
b10010 H
#2150000
1!
1Z
b101 i
b10110100 v
1;
b100101100 j
0D
1C
1@
0>
1=
0<
0s
1r
1o
0m
1l
0k
#2200000
0!
0Z
#2225000
b10011 H
#2250000
1!
1Z
b110 i
b10110011 v
0;
1:
b10010110 j
1D
0B
1A
0@
1>
0=
1s
0q
1p
0o
1m
0l
#2300000
0!
0Z
#2325000
b10100 H
#2350000
1!
1Z
b111 i
b10110010 v
1;
b1000100110 j
0A
1@
0>
1<
0p
1o
0m
1k
#2400000
0!
0Z
#2425000
b10101 H
#2450000
1!
1Z
b0 i
b10110001 v
0;
0:
09
b11001000 j
0D
0C
1B
0@
1?
1>
0<
0s
0r
1q
0o
1n
1m
0k
#2500000
0!
0Z
#2525000
b10110 H
#2550000
1!
1Z
b1 i
b10110000 v
1;
b1010111100 j
1C
1A
1@
0?
1<
1r
1p
1o
0n
1k
#2600000
0!
0Z
#2625000
b10111 H
#2650000
1!
1Z
b10 i
b10101111 v
0;
1:
b101011110 j
1D
0@
1?
0>
1=
0<
1s
0o
1n
0m
1l
0k
#2700000
0!
0Z
#2725000
b11000 H
#2750000
1!
1Z
b11 i
b10101110 v
1;
b111110100 j
0D
0B
1@
1>
0s
0q
1o
1m
#2800000
0!
0Z
#2825000
b11001 H
#2850000
1!
1Z
b100 i
b10101101 v
0;
0:
19
b1010001010 j
1D
0C
1B
0A
0@
0?
0=
1<
1s
0r
1q
0p
0o
0n
0l
1k
#2900000
0!
0Z
#2925000
b11010 H
#2950000
1!
1Z
b101 i
b10101100 v
1;
b100101100 j
0D
1C
1@
0>
1=
0<
0s
1r
1o
0m
1l
0k
#3000000
0!
0Z
#3025000
b11011 H
#3050000
1!
1Z
b110 i
b10101011 v
0;
1:
b10010110 j
1D
0B
1A
0@
1>
0=
1s
0q
1p
0o
1m
0l
#3100000
0!
0Z
#3125000
b11100 H
#3150000
1!
1Z
b111 i
b10101010 v
1;
b1000100110 j
0A
1@
0>
1<
0p
1o
0m
1k
#3200000
0!
0Z
#3225000
b11101 H
#3250000
1!
1Z
b0 i
b10101001 v
0;
0:
09
b11001000 j
0D
0C
1B
0@
1?
1>
0<
0s
0r
1q
0o
1n
1m
0k
#3300000
0!
0Z
#3325000
b11110 H
#3350000
1!
1Z
b1 i
b10101000 v
1;
b1010111100 j
1C
1A
1@
0?
1<
1r
1p
1o
0n
1k
#3400000
0!
0Z
#3425000
b11111 H
#3450000
1!
1Z
b10 i
b10100111 v
0;
1:
b101011110 j
1D
0@
1?
0>
1=
0<
1s
0o
1n
0m
1l
0k
#3500000
0!
0Z
#3525000
b100000 H
#3550000
1!
1Z
b11 i
b10100110 v
1;
b111110100 j
0D
0B
1@
1>
0s
0q
1o
1m
#3600000
0!
0Z
#3625000
b100001 H
#3650000
1!
1Z
b100 i
b10100101 v
0;
0:
19
b1010001010 j
1D
0C
1B
0A
0@
0?
0=
1<
1s
0r
1q
0p
0o
0n
0l
1k
#3700000
0!
0Z
#3725000
b100010 H
#3750000
1!
1Z
b101 i
b10100100 v
1;
b100101100 j
0D
1C
1@
0>
1=
0<
0s
1r
1o
0m
1l
0k
#3800000
0!
0Z
#3825000
b100011 H
#3850000
1!
1Z
b110 i
b10100011 v
0;
1:
b10010110 j
1D
0B
1A
0@
1>
0=
1s
0q
1p
0o
1m
0l
#3900000
0!
0Z
#3925000
b100100 H
#3950000
1!
1Z
b111 i
b10100010 v
1;
b1000100110 j
0A
1@
0>
1<
0p
1o
0m
1k
#4000000
0!
0Z
#4025000
b100101 H
#4050000
1!
1Z
b0 i
b10100001 v
0;
0:
09
b11001000 j
0D
0C
1B
0@
1?
1>
0<
0s
0r
1q
0o
1n
1m
0k
#4100000
0!
0Z
#4125000
b100110 H
#4150000
1!
1Z
b1 i
b10100000 v
1;
b1010111100 j
1C
1A
1@
0?
1<
1r
1p
1o
0n
1k
#4200000
0!
0Z
#4225000
b100111 H
#4250000
1!
1Z
b10 i
b10011111 v
0;
1:
b101011110 j
1D
0@
1?
0>
1=
0<
1s
0o
1n
0m
1l
0k
#4300000
0!
0Z
#4325000
b101000 H
#4350000
1!
1Z
b11 i
b10011110 v
1;
b111110100 j
0D
0B
1@
1>
0s
0q
1o
1m
#4400000
0!
0Z
#4425000
b101001 H
#4450000
1!
1Z
b100 i
b10011101 v
0;
0:
19
b1010001010 j
1D
0C
1B
0A
0@
0?
0=
1<
1s
0r
1q
0p
0o
0n
0l
1k
#4500000
0!
0Z
#4525000
b101010 H
#4550000
1!
1Z
b101 i
b10011100 v
1;
b100101100 j
0D
1C
1@
0>
1=
0<
0s
1r
1o
0m
1l
0k
#4600000
0!
0Z
#4625000
b101011 H
#4650000
1!
1Z
b110 i
b10011011 v
0;
1:
b10010110 j
1D
0B
1A
0@
1>
0=
1s
0q
1p
0o
1m
0l
#4700000
0!
0Z
#4725000
b101100 H
#4750000
1!
1Z
b111 i
b10011010 v
1;
b1000100110 j
0A
1@
0>
1<
0p
1o
0m
1k
#4800000
0!
0Z
#4825000
b101101 H
#4850000
1!
1Z
b0 i
b10011001 v
0;
0:
09
b11001000 j
0D
0C
1B
0@
1?
1>
0<
0s
0r
1q
0o
1n
1m
0k
#4900000
0!
0Z
#4925000
b101110 H
#4950000
1!
1Z
b1 i
b10011000 v
1;
b1010111100 j
1C
1A
1@
0?
1<
1r
1p
1o
0n
1k
#5000000
0!
0Z
#5025000
b101111 H
#5050000
1!
1Z
b10 i
b10010111 v
0;
1:
b101011110 j
1D
0@
1?
0>
1=
0<
1s
0o
1n
0m
1l
0k
#5100000
0!
0Z
#5125000
b110000 H
#5150000
1!
1Z
b11 i
b10010110 v
1;
b111110100 j
0D
0B
1@
1>
0s
0q
1o
1m
#5200000
0!
0Z
#5225000
b110001 H
#5250000
1!
1Z
b100 i
b10010101 v
0;
0:
19
b1010001010 j
1D
0C
1B
0A
0@
0?
0=
1<
1s
0r
1q
0p
0o
0n
0l
1k
#5300000
0!
0Z
#5325000
b110010 H
#5350000
1!
1Z
b101 i
b10010100 v
1;
b100101100 j
0D
1C
1@
0>
1=
0<
0s
1r
1o
0m
1l
0k
#5400000
0!
0Z
#5425000
b110011 H
#5450000
1!
1Z
b110 i
b10010011 v
0;
1:
b10010110 j
1D
0B
1A
0@
1>
0=
1s
0q
1p
0o
1m
0l
#5500000
0!
0Z
#5525000
b110100 H
#5550000
1!
1Z
b111 i
b10010010 v
1;
b1000100110 j
0A
1@
0>
1<
0p
1o
0m
1k
#5600000
0!
0Z
#5625000
b110101 H
#5650000
1!
1Z
b0 i
b10010001 v
0;
0:
09
b11001000 j
0D
0C
1B
0@
1?
1>
0<
0s
0r
1q
0o
1n
1m
0k
#5700000
0!
0Z
#5725000
b110110 H
#5750000
1!
1Z
b1 i
b10010000 v
1;
b1010111100 j
1C
1A
1@
0?
1<
1r
1p
1o
0n
1k
#5800000
0!
0Z
#5825000
b110111 H
#5850000
1!
1Z
b10 i
b10001111 v
0;
1:
b101011110 j
1D
0@
1?
0>
1=
0<
1s
0o
1n
0m
1l
0k
#5900000
0!
0Z
#5925000
b111000 H
#5950000
1!
1Z
b11 i
b10001110 v
1;
b111110100 j
0D
0B
1@
1>
0s
0q
1o
1m
#6000000
0!
0Z
#6025000
b111001 H
#6050000
1!
1Z
b100 i
b10001101 v
0;
0:
19
b1010001010 j
1D
0C
1B
0A
0@
0?
0=
1<
1s
0r
1q
0p
0o
0n
0l
1k
#6100000
0!
0Z
#6125000
b111010 H
#6150000
1!
1Z
b101 i
b10001100 v
1;
b100101100 j
0D
1C
1@
0>
1=
0<
0s
1r
1o
0m
1l
0k
#6200000
0!
0Z
#6225000
b111011 H
#6250000
1!
1Z
b110 i
b10001011 v
0;
1:
b10010110 j
1D
0B
1A
0@
1>
0=
1s
0q
1p
0o
1m
0l
#6300000
0!
0Z
#6325000
b111100 H
#6350000
1!
1Z
b111 i
b10001010 v
1;
b1000100110 j
0A
1@
0>
1<
0p
1o
0m
1k
#6400000
0!
0Z
#6425000
b111101 H
#6450000
1!
1Z
b0 i
b10001001 v
0;
0:
09
b11001000 j
0D
0C
1B
0@
1?
1>
0<
0s
0r
1q
0o
1n
1m
0k
#6500000
0!
0Z
#6525000
b111110 H
#6550000
1!
1Z
b1 i
b10001000 v
1;
b1010111100 j
1C
1A
1@
0?
1<
1r
1p
1o
0n
1k
#6600000
0!
0Z
#6625000
b111111 H
#6650000
1!
1Z
b10 i
b10000111 v
0;
1:
b101011110 j
1D
0@
1?
0>
1=
0<
1s
0o
1n
0m
1l
0k
#6700000
0!
0Z
#6725000
b1000000 H
#6750000
1!
1Z
b11 i
b10000110 v
1;
b111110100 j
0D
0B
1@
1>
0s
0q
1o
1m
#6800000
0!
0Z
#6825000
b1000001 H
#6850000
1!
1Z
b100 i
b10000101 v
0;
0:
19
b1010001010 j
1D
0C
1B
0A
0@
0?
0=
1<
1s
0r
1q
0p
0o
0n
0l
1k
#6900000
0!
0Z
#6925000
b1000010 H
#6950000
1!
1Z
b101 i
b10000100 v
1;
b100101100 j
0D
1C
1@
0>
1=
0<
0s
1r
1o
0m
1l
0k
#7000000
0!
0Z
#7025000
b1000011 H
#7050000
1!
1Z
b110 i
b10000011 v
0;
1:
b10010110 j
1D
0B
1A
0@
1>
0=
1s
0q
1p
0o
1m
0l
#7100000
0!
0Z
#7125000
b1000100 H
#7150000
1!
1Z
b111 i
b10000010 v
1;
b1000100110 j
0A
1@
0>
1<
0p
1o
0m
1k
#7200000
0!
0Z
#7225000
b1000101 H
#7250000
1!
1Z
b0 i
b10000001 v
0;
0:
09
b11001000 j
0D
0C
1B
0@
1?
1>
0<
0s
0r
1q
0o
1n
1m
0k
#7300000
0!
0Z
#7325000
b1000110 H
#7350000
1!
1Z
b1 i
b10000000 v
1;
b1010111100 j
1C
1A
1@
0?
1<
1r
1p
1o
0n
1k
#7400000
0!
0Z
#7425000
b1000111 H
#7450000
1!
1Z
b10 i
b1111111 v
0;
1:
b101011110 j
1D
0@
1?
0>
1=
0<
1s
0o
1n
0m
1l
0k
#7500000
0!
0Z
#7525000
b1001000 H
#7550000
1!
1Z
b11 i
b1111110 v
1;
b111110100 j
0D
0B
1@
1>
0s
0q
1o
1m
#7600000
0!
0Z
#7625000
b1001001 H
#7650000
1!
1Z
b100 i
b1111101 v
0;
0:
19
b1010001010 j
1D
0C
1B
0A
0@
0?
0=
1<
1s
0r
1q
0p
0o
0n
0l
1k
#7700000
0!
0Z
#7725000
b1001010 H
#7750000
1!
1Z
b101 i
b1111100 v
1;
b100101100 j
0D
1C
1@
0>
1=
0<
0s
1r
1o
0m
1l
0k
#7800000
0!
0Z
#7825000
b1001011 H
#7850000
1!
1Z
b110 i
b1111011 v
0;
1:
b10010110 j
1D
0B
1A
0@
1>
0=
1s
0q
1p
0o
1m
0l
#7900000
0!
0Z
#7925000
b1001100 H
#7950000
1!
1Z
b111 i
b1111010 v
1;
b1000100110 j
0A
1@
0>
1<
0p
1o
0m
1k
#8000000
0!
0Z
#8025000
b1001101 H
#8050000
1!
1Z
b0 i
b1111001 v
0;
0:
09
b11001000 j
0D
0C
1B
0@
1?
1>
0<
0s
0r
1q
0o
1n
1m
0k
#8100000
0!
0Z
#8125000
b1001110 H
#8150000
1!
1Z
b1 i
b1111000 v
1;
b1010111100 j
1C
1A
1@
0?
1<
1r
1p
1o
0n
1k
#8200000
0!
0Z
#8225000
b1001111 H
#8250000
1!
1Z
b10 i
b1110111 v
0;
1:
b101011110 j
1D
0@
1?
0>
1=
0<
1s
0o
1n
0m
1l
0k
#8300000
0!
0Z
#8325000
b1010000 H
#8350000
1!
1Z
b11 i
b1110110 v
1;
b111110100 j
0D
0B
1@
1>
0s
0q
1o
1m
#8400000
0!
0Z
#8425000
b1010001 H
#8450000
1!
1Z
b100 i
b1110101 v
0;
0:
19
b1010001010 j
1D
0C
1B
0A
0@
0?
0=
1<
1s
0r
1q
0p
0o
0n
0l
1k
#8500000
0!
0Z
#8525000
b1010010 H
#8550000
1!
1Z
b101 i
b1110100 v
1;
b100101100 j
0D
1C
1@
0>
1=
0<
0s
1r
1o
0m
1l
0k
#8600000
0!
0Z
#8625000
b1010011 H
#8650000
1!
1Z
b110 i
b1110011 v
0;
1:
b10010110 j
1D
0B
1A
0@
1>
0=
1s
0q
1p
0o
1m
0l
#8700000
0!
0Z
#8725000
b1010100 H
#8750000
1!
1Z
b111 i
b1110010 v
1;
b1000100110 j
0A
1@
0>
1<
0p
1o
0m
1k
#8800000
0!
0Z
#8825000
b1010101 H
#8850000
1!
1Z
b0 i
b1110001 v
0;
0:
09
b11001000 j
0D
0C
1B
0@
1?
1>
0<
0s
0r
1q
0o
1n
1m
0k
#8900000
0!
0Z
#8925000
b1010110 H
#8950000
1!
1Z
b1 i
b1110000 v
1;
b1010111100 j
1C
1A
1@
0?
1<
1r
1p
1o
0n
1k
#9000000
0!
0Z
#9025000
b1010111 H
#9050000
1!
1Z
b10 i
b1101111 v
0;
1:
b101011110 j
1D
0@
1?
0>
1=
0<
1s
0o
1n
0m
1l
0k
#9100000
0!
0Z
#9125000
b1011000 H
#9150000
1!
1Z
b11 i
b1101110 v
1;
b111110100 j
0D
0B
1@
1>
0s
0q
1o
1m
#9200000
0!
0Z
#9225000
b1011001 H
#9250000
1!
1Z
b100 i
b1101101 v
0;
0:
19
b1010001010 j
1D
0C
1B
0A
0@
0?
0=
1<
1s
0r
1q
0p
0o
0n
0l
1k
#9300000
0!
0Z
#9325000
b1011010 H
#9350000
1!
1Z
b101 i
b1101100 v
1;
b100101100 j
0D
1C
1@
0>
1=
0<
0s
1r
1o
0m
1l
0k
#9400000
0!
0Z
#9425000
b1011011 H
#9450000
1!
1Z
b110 i
b1101011 v
0;
1:
b10010110 j
1D
0B
1A
0@
1>
0=
1s
0q
1p
0o
1m
0l
#9500000
0!
0Z
#9525000
b1011100 H
#9550000
1!
1Z
b111 i
b1101010 v
1;
b1000100110 j
0A
1@
0>
1<
0p
1o
0m
1k
#9600000
0!
0Z
#9625000
b1011101 H
#9650000
1!
1Z
b0 i
b1101001 v
0;
0:
09
b11001000 j
0D
0C
1B
0@
1?
1>
0<
0s
0r
1q
0o
1n
1m
0k
#9700000
0!
0Z
#9725000
b1011110 H
#9750000
1!
1Z
b1 i
b1101000 v
1;
b1010111100 j
1C
1A
1@
0?
1<
1r
1p
1o
0n
1k
#9800000
0!
0Z
#9825000
b1011111 H
#9850000
1!
1Z
b10 i
b1100111 v
0;
1:
b101011110 j
1D
0@
1?
0>
1=
0<
1s
0o
1n
0m
1l
0k
#9900000
0!
0Z
#9925000
b1100000 H
#9950000
1!
1Z
b11 i
b1100110 v
1;
b111110100 j
0D
0B
1@
1>
0s
0q
1o
1m
#10000000
0!
0Z
#10025000
b1100001 H
#10050000
1!
1Z
b100 i
b1100101 v
0;
0:
19
b1010001010 j
1D
0C
1B
0A
0@
0?
0=
1<
1s
0r
1q
0p
0o
0n
0l
1k
#10100000
0!
0Z
#10125000
b1100010 H
#10150000
1!
1Z
b101 i
b1100100 v
1;
b100101100 j
0D
1C
1@
0>
1=
0<
0s
1r
1o
0m
1l
0k
#10200000
0!
0Z
#10225000
b1100011 H
#10250000
1!
1Z
b110 i
b1100011 v
0;
1:
b10010110 j
1D
0B
1A
0@
1>
0=
1s
0q
1p
0o
1m
0l
#10300000
0!
0Z
#10325000
b1100100 H
#10350000
1!
1Z
b111 i
b1100010 v
1;
b1000100110 j
0A
1@
0>
1<
0p
1o
0m
1k
#10400000
0!
0Z
#10425000
b1100101 H
#10450000
1!
1Z
b0 i
b1100001 v
0;
0:
09
b11001000 j
0D
0C
1B
0@
1?
1>
0<
0s
0r
1q
0o
1n
1m
0k
#10500000
0!
0Z
#10525000
b1100110 H
#10550000
1!
1Z
b1 i
b1100000 v
1;
b1010111100 j
1C
1A
1@
0?
1<
1r
1p
1o
0n
1k
#10600000
0!
0Z
#10625000
b1100111 H
#10650000
1!
1Z
b10 i
b1011111 v
0;
1:
b101011110 j
1D
0@
1?
0>
1=
0<
1s
0o
1n
0m
1l
0k
#10700000
0!
0Z
#10725000
b1101000 H
#10750000
1!
1Z
b11 i
b1011110 v
1;
b111110100 j
0D
0B
1@
1>
0s
0q
1o
1m
#10800000
0!
0Z
#10825000
b1101001 H
#10850000
1!
1Z
b100 i
b1011101 v
0;
0:
19
b1010001010 j
1D
0C
1B
0A
0@
0?
0=
1<
1s
0r
1q
0p
0o
0n
0l
1k
#10900000
0!
0Z
#10925000
b1101010 H
#10950000
1!
1Z
b101 i
b1011100 v
1;
b100101100 j
0D
1C
1@
0>
1=
0<
0s
1r
1o
0m
1l
0k
#11000000
0!
0Z
#11025000
b1101011 H
#11050000
1!
1Z
b110 i
b1011011 v
0;
1:
b10010110 j
1D
0B
1A
0@
1>
0=
1s
0q
1p
0o
1m
0l
#11100000
0!
0Z
#11125000
b1101100 H
#11150000
1!
1Z
b111 i
b1011010 v
1;
b1000100110 j
0A
1@
0>
1<
0p
1o
0m
1k
#11200000
0!
0Z
#11225000
b1101101 H
#11250000
1!
1Z
b0 i
b1011001 v
0;
0:
09
b11001000 j
0D
0C
1B
0@
1?
1>
0<
0s
0r
1q
0o
1n
1m
0k
#11300000
0!
0Z
#11325000
b1101110 H
#11350000
1!
1Z
b1 i
b1011000 v
1;
b1010111100 j
1C
1A
1@
0?
1<
1r
1p
1o
0n
1k
#11400000
0!
0Z
#11425000
b1101111 H
#11450000
1!
1Z
b10 i
b1010111 v
0;
1:
b101011110 j
1D
0@
1?
0>
1=
0<
1s
0o
1n
0m
1l
0k
#11500000
0!
0Z
#11525000
b1110000 H
#11550000
1!
1Z
b11 i
b1010110 v
1;
b111110100 j
0D
0B
1@
1>
0s
0q
1o
1m
#11600000
0!
0Z
#11625000
b1110001 H
#11650000
1!
1Z
b100 i
b1010101 v
0;
0:
19
b1010001010 j
1D
0C
1B
0A
0@
0?
0=
1<
1s
0r
1q
0p
0o
0n
0l
1k
#11700000
0!
0Z
#11725000
b1110010 H
#11750000
1!
1Z
b101 i
b1010100 v
1;
b100101100 j
0D
1C
1@
0>
1=
0<
0s
1r
1o
0m
1l
0k
#11800000
0!
0Z
#11825000
b1110011 H
#11850000
1!
1Z
b110 i
b1010011 v
0;
1:
b10010110 j
1D
0B
1A
0@
1>
0=
1s
0q
1p
0o
1m
0l
#11900000
0!
0Z
#11925000
b1110100 H
#11950000
1!
1Z
b111 i
b1010010 v
1;
b1000100110 j
0A
1@
0>
1<
0p
1o
0m
1k
#12000000
0!
0Z
#12025000
b1110101 H
#12050000
1!
1Z
b0 i
b1010001 v
0;
0:
09
b11001000 j
0D
0C
1B
0@
1?
1>
0<
0s
0r
1q
0o
1n
1m
0k
#12100000
0!
0Z
#12125000
b1110110 H
#12150000
1!
1Z
b1 i
b1010000 v
1;
b1010111100 j
1C
1A
1@
0?
1<
1r
1p
1o
0n
1k
#12200000
0!
0Z
#12225000
b1110111 H
#12250000
1!
1Z
b10 i
b1001111 v
0;
1:
b101011110 j
1D
0@
1?
0>
1=
0<
1s
0o
1n
0m
1l
0k
#12300000
0!
0Z
#12325000
b1111000 H
#12350000
1!
1Z
b11 i
b1001110 v
1;
b111110100 j
0D
0B
1@
1>
0s
0q
1o
1m
#12400000
0!
0Z
#12425000
b1111001 H
#12450000
1!
1Z
b100 i
b1001101 v
0;
0:
19
b1010001010 j
1D
0C
1B
0A
0@
0?
0=
1<
1s
0r
1q
0p
0o
0n
0l
1k
#12500000
0!
0Z
#12525000
b1111010 H
#12550000
1!
1Z
b101 i
b1001100 v
1;
b100101100 j
0D
1C
1@
0>
1=
0<
0s
1r
1o
0m
1l
0k
#12600000
0!
0Z
#12625000
b1111011 H
#12650000
1!
1Z
b110 i
b1001011 v
0;
1:
b10010110 j
1D
0B
1A
0@
1>
0=
1s
0q
1p
0o
1m
0l
#12700000
0!
0Z
#12725000
b1111100 H
#12750000
1!
1Z
b111 i
b1001010 v
1;
b1000100110 j
0A
1@
0>
1<
0p
1o
0m
1k
#12800000
0!
0Z
#12825000
b1111101 H
